[
    {
        "id": 1,
        "first_name": "Lilas",
        "last_name": "Ringsell",
        "email": "lringsell0@livejournal.com"
    },
    {
        "id": 2,
        "first_name": "Garry",
        "last_name": "Standidge",
        "email": "gstandidge1@sitemeter.com"
    },
    {
        "id": 3,
        "first_name": "Renae",
        "last_name": "Winward",
        "email": "rwinward2@netvibes.com"
    },
    {
        "id": 4,
        "first_name": "Abigail",
        "last_name": "Dunderdale",
        "email": "adunderdale3@discovery.com"
    },
    {
        "id": 5,
        "first_name": "Sonny",
        "last_name": "Rohan",
        "email": "srohan4@last.fm"
    },
    {
        "id": 6,
        "first_name": "Hilda",
        "last_name": "Stutard",
        "email": "hstutard5@apple.com"
    },
    {
        "id": 7,
        "first_name": "Baxy",
        "last_name": "Spittles",
        "email": "bspittles6@google.com.au"
    },
    {
        "id": 8,
        "first_name": "Serge",
        "last_name": "Candlin",
        "email": "scandlin7@domainmarket.com"
    },
    {
        "id": 9,
        "first_name": "Myrah",
        "last_name": "Crowson",
        "email": "mcrowson8@wikipedia.org"
    },
    {
        "id": 10,
        "first_name": "Sybille",
        "last_name": "Willgrass",
        "email": "swillgrass9@networksolutions.com"
    }
]